{
    "gain min": "1",
    "gain max": "16",
    "trigger off": "0",
    "r00": "1",
    "r01": "1",
    "r02": "1",
    "r10": "1",
    "r11": "1",
    "r12": "1",
    "r20": "1",
    "r21": "1",
    "r22": "1",
    "wb_r": "0.400000006",
    "wb_gE": "0.25",
    "wb_gO": "0.25",
    "wb_b": "0.5",
    "save frames": true,
    "auto start": true,
    "directory": "/data/rolleye/raw",
    "exposure time": 5000
}