{
    "application_settings" : {
        "num_cameras": 2,
        "width": 2448,
        "height": 2048,
        "fps" : 25,
        "ip_address": "10.8.0.28",
        "comment" : "The application is able to generate input frames from Camera, Video or Images, in order to work with Video/Images, look:'camera_settings'",
        "#sourceType": "camera/image/video",
        "sourceType": "camera",
        "offline_generate_new_file_names": false,
        "offline_loop_trough_images" : false,
        "maximum_events_before_exit" : 150, 
        "maximum_difference_between_frames_in_seconds" : 5,
        "version" : "0.13.22"
    },
    "trigger" : {
        "comment": "disabling snap_interval_ms and use_trigger setts the application to take/test each frame",
        "#type" : "disable,interval,gpio",
        "type" : "interval",
        "interval": 1000,
        "gpio" : 443,
        "offset_ms" : 170
    },
    "calibration" : [
        {   
            "#use" : "options are on|off|disable, once disabeld, it can no longer be changed on runtime",
            "use" : "on",
            "comment" : "Calibration will be applied to camera indecies of specified (master_camera_index|slave_camera_index), (master_calibration_index|slave_calibration_index) are index of the cameras in the calibration file. Can be reused.",
            "master_camera_index" : 0,
            "slave_camera_index" : 1,
            "master_calibration_index" : 0,
            "slave_calibration_index" : 1,
            "calibraton_file_path" : "example_calib.json"
        },
        {
            "#comment" : "Will be used for multiple depth and detections.",
            "#use" : "options are on|off|disable, once disabeld, it can no longer be changed on runtime",
            "use" : "off",
            "master_camera_index" : 2,
            "slave_camera_index" : 3,
            "master_calibration_index" : 0,
            "slave_calibration_index" : 1,
            "calibraton_file_path" : "/data/softwaresupreme/deepstream/build/example_calib2.json"
        }
    ],
    "snapshot" : {
        "comment" : "Save frames on trigger / Non-Detected frames",
        "#use" : "options are on|off|disable, once disabeld, it can no longer be changed on runtime",
        "use" : "on",
        "save_frames_from": [0],
        "#jpeg_quality": "0 - off, 1->100 quality setting",
        "jpeg_quality" : 0,
        "#downscale" : "0 is disabled, every other is delimiter",
        "downscale" : 0,
        "output_dir" : "snaps"
    },
    "record" : {
        "comment" : "Save Videos of fixed seconds",
        "#use" : "options are on|disable, currently cannot be changed during runtime",
        "use" : "disable",
        "bitrate": 20000000,
        "save_frames_from": [0,1],
        "video_lenght_seconds" : 10,
        "output_dir" : "record"
    },
    "streaming" : {
        "#use" : "options are on|disable, currently cannot be changed during runtime",
        "use" : "disable",
        "bitrate": 5000000,
        "#camera_ids" : "multiple camera stream is only available for RTSP streaming, for the location of stream, check logs",
        "camera_ids": [0,1,2],
        "#downscale": "0 - Use neuralnetwork resolution(most optimised), 1 - full frame resolution, 2+ - decimate the resolution",
        "downscale": 1,
        "depth_info" : {
            "#use" : "options are on|off, currently cannot be changed during runtime",
            "use" : "disable",
            "service_name" : "serialserver",
            "port" : 2000,
            "camera_ids": [0],
            "search_keywords" : {
                "DPT" : "Device_Depth", 
                "TLT" : "Tilt_Angle", 
                "X_POS" : "Horizontal_Position"
            }
        }
    },
    "detector" : {
        "#use" : "options are on|disable, currently cannot be changed during runtime",
        "use" : "on",
        "#detector_id" : "Detection will be applied to the specified camera indecies @detector_id, cameras with id @group_camera_ids will be grouped and saved in @detected_frames | @non_detected_frames",
        "detector_id" : [0],
        "group_camera_ids": [0,1],
        "detected_frames" : {
            "comment" : "If enabled, every detected frame will be saved as snapshot, in output_directories:detector",
            "#use" : "options are on|off|disable, once disabeld, it can no longer be changed on runtime",
            "use" : "on",
            "output_dir" : "detected"
        },
        "non_detected_frames" : {
            "comment" : "If enabled, every detected frame will be saved as snapshot, in output_directories:detector",
            "#use" : "options are on|off|disable, once disabeld, it can no longer be changed on runtime",
            "use" : "off",
            "output_dir" : "nonDetected"
        },
        "tracker" : {
            "comment" : "Used post detection for tracking objects",
            "#use" : "options are on|disable, currently cannot be changed during runtime",
            "use" : "disable",
            "config" : "fishnet_tracker_NvDCF_perf.yml"
        },
        "osd" : {
            "comment" : "Detection information draw on the buffer. Resolution of the detector. Can be saved as image.",
            "#use" : "options are on|off|disable, once disabeld, it can no longer be changed on runtime",
            "use" : "off",
            "display_additional_information" : true,
            "#output_dir": "Images with the size of the neural-network. Detection bboxes can be drawn.",
            "output_dir" : "nn_meta_draw",
            "save_only_detected" : true
        },
        "rectify_before_detector" : false,
        "#override_interval": "0 - off, 1 is every Frame, n is every n-th frame",
        "override_interval": 0,
        "width"  : 640,
        "height" : 640,
        "config": "fishnet_pgie_config.txt"
    },
    "depth_estimation": { 
        "comment" : "Run depth estimation of buffers. Send data to specified address.",
        "#use" : "options are on|off|disable, once disabeld, it can no longer be changed on runtime",
        "use" : "disable",
        "#vpi_backend" : "Can be <cpu|cuda/gpu|pva|pva_nvenc_vic>",
        "vpi_backend" : "cuda",
        "#max_disparity" : "value may be changed depending on the backend used, different backends have different maximums",
        "max_disparity" : 256,
        "#devider": "cuda and cpu does not have fixed valus of input, you can change the input size, which will be @application_settings::width|height devided by @devider",
        "devider": 2,
        "#input_processing" : "Can be letterbox|resize|crop",
        "input_processing" : "letterbox",
        "#depth_type" : "Can be 8bit|16bit",
        "depth_type" : "8bit",
        "calculate_on_depth" : {
            "#use" : "options are on|off|disable, once disabeld, it can no longer be changed on runtime",
            "use" : "disable",
            "#comment" : "in order to run only on depth images @detector_id, and @calibration::master_camera_index|slave_camera_index have to be the same(detector should run on depth indices)",
            "#calculate_speed" : "for the speed calculation detector and tracker have to be enabled.",
            "calculate_speed" : true
        },
        "send_to_consumer" : {
            "#use" : "options are on|off|disable, once disabeld, it can no longer be changed on runtime",
            "use" : "off",
            "service_name" : "consumer",
            "port":5009
        },
        "save_depth" : {
            "#use" : "options are on|off|disable, once disabeld, it can no longer be changed on runtime",
            "use" : "on",
            "output_dir" : "depth_dir"
        },
        "save_disparity" : {
            "#use" : "options are on|off|disable, once disabeld, it can no longer be changed on runtime",
            "use" : "disable",
            "output_dir" : "depth_dir"
        },       
        "save_rectified" : {
            "#use" : "options are on|off|disable, once disabeld, it can no longer be changed on runtime",
            "use" : "disable",
            "output_dir" : "depth_dir"
        }
    },
    "camera_settings" : [
        {
            "image_input": "../dataset/input_disp/_0.jpg",
            "video_input": "../video.mp4",
            "video_input_names": "../file_names.txt",
            "#camera_params" : "Camera parameters and ranges can seen with 'gst-inspect-1.0 nvarguscamerasrc' from the terminal",
            "#all_available_camera_parameters": "tnr-mode=0 ispdigitalgainrange='1 1' gainrange='16 16' exposuretimerange='5000 5000' awblock=false aeregion='' aelock=false exposurecompensation=0 aeantibanding=2 ee-strength=-1 ee-mode=0 tnr-strength=-1 total-sensor-modes=-1 sensor-mode=-1 saturation=1 wbmode=1 timeout=0 silent=true do-timestamp=true typefind=false num-buffers=-1 blocksize=4096", 
            "camera_params": "tnr-mode=0 ispdigitalgainrange='1 1' gainrange='5 5' exposuretimerange='5000000 5000000'",
            "streaming_port": 5005
        },
        {
            "image_input": "../dataset/input_disp/_1.jpg",
            "video_input": "<example_video1.mp4>",
            "camera_params": "tnr-mode=0 ispdigitalgainrange='1 1' gainrange='5 5' exposuretimerange='5000000 5000000'",
            "streaming_port": 5006
        },
        {
            "image_input": "/<example_dir>/_2_rgb.jpeg",
            "video_input": "<example_video2.mp4>",
            "camera_params": "tnr-mode=0 ispdigitalgainrange='1 1' gainrange='16 16' exposuretimerange='34000 358733000'",
            "streaming_port": 5007
        },
        {
            "image_input": "/<example_dir>/_2_rgb.jpeg",
            "video_input": "<example_video2.mp4>",
            "camera_params": "tnr-mode=0 ispdigitalgainrange='1 1' gainrange='16 16' exposuretimerange='5000 5000'",
            "streaming_port": 5008
        }
    ]
}